[{
    "time": 41.666666666666664,
    "data": [
      [
        "l-upperarm",
        0.5000000596046448,
        0.5,
        0.5,
        -0.5000000596046448
      ],
      [
        "l-lowerarm",
        0.7071068286895752,
        0.0,
        0.0,
        -0.7071068286895752
      ],
      [
        "l-hand",
        0.7071068286895752,
        0.0,
        0.0,
        -0.7071068286895752
      ]
    ]
  },
  {
    "time": 83.33333333333333,
    "data": [
      [
        "l-upperarm",
        0.5000683069229126,
        0.4992356300354004,
        0.5004814863204956,
        -0.5002138018608093
      ],
      [
        "l-lowerarm",
        0.7071068286895752,
        1.0094939852933749e-06,
        -1.0094940989802126e-06,
        -0.7071068286895752
      ],
      [
        "l-hand",
        0.7069723010063171,
        0.0008415341726504266,
        -0.00067245023092255,
        -0.7072404623031616
      ]
    ]
  },
  {
    "time": 125.0,
    "data": [
      [
        "l-upperarm",
        0.5002656579017639,
        0.4969877302646637,
        0.5018938183784485,
        -0.500839352607727
      ],
      [
        "l-lowerarm",
        0.7071068286895752,
        8.075956429820508e-06,
        -8.075956429820508e-06,
        -0.7071068286895752
      ],
      [
        "l-hand",
        0.7065724730491638,
        0.003315660636872053,
        -0.0026500308886170387,
        -0.7076279520988464
      ]
    ]
  },
  {
    "time": 166.66666666666666,
    "data": [
      [
        "l-upperarm",
        0.5005775690078735,
        0.49331870675086975,
        0.504187285900116,
        -0.5018504858016968
      ],
      [
        "l-lowerarm",
        0.7071068286895752,
        2.7256375688011758e-05,
        -2.725638114497997e-05,
        -0.7071068286895752
      ],
      [
        "l-hand",
        0.7059054374694824,
        0.007351499516516924,
        -0.005876956507563591,
        -0.7082435488700867
      ]
    ]
  },
  {
    "time": 208.33333333333331,
    "data": [
      [
        "l-upperarm",
        0.5009859800338745,
        0.48828360438346863,
        0.507310152053833,
        -0.5032182335853577
      ],
      [
        "l-lowerarm",
        0.7071068286895752,
        6.46078769932501e-05,
        -6.46078769932501e-05,
        -0.7071068286895752
      ],
      [
        "l-hand",
        0.7049605846405029,
        0.012883412651717663,
        -0.01030163373798132,
        -0.7090546488761902
      ]
    ]
  },
  {
    "time": 250.0,
    "data": [
      [
        "l-upperarm",
        0.5014699101448059,
        0.48193249106407166,
        0.5112086534500122,
        -0.5049106478691101
      ],
      [
        "l-lowerarm",
        0.7071067690849304,
        0.00012618774781003594,
        -0.00012618776236195117,
        -0.7071067690849304
      ],
      [
        "l-hand",
        0.7037205100059509,
        0.019849363714456558,
        -0.015875378623604774,
        -0.7100221514701843
      ]
    ]
  },
  {
    "time": 291.66666666666663,
    "data": [
      [
        "l-upperarm",
        0.5020056366920471,
        0.4743117094039917,
        0.5158271789550781,
        -0.5068936347961426
      ],
      [
        "l-lowerarm",
        0.7071067690849304,
        0.0002180536976084113,
        -0.0002180536976084113,
        -0.7071067690849304
      ],
      [
        "l-hand",
        0.702161431312561,
        0.028189342468976974,
        -0.022551117464900017,
        -0.7111021280288696
      ]
    ]
  },
  {
    "time": 333.3333333333333,
    "data": [
      [
        "l-upperarm",
        0.5025674104690552,
        0.4654656648635864,
        0.5211079716682434,
        -0.5091308951377869
      ],
      [
        "l-lowerarm",
        0.7071067094802856,
        0.00034626410342752934,
        -0.00034626410342752934,
        -0.7071067094802856
      ],
      [
        "l-hand",
        0.7002550363540649,
        0.03784365579485893,
        -0.030282072722911835,
        -0.7122455835342407
      ]
    ]
  },
  {
    "time": 375.0,
    "data": [
      [
        "l-upperarm",
        0.503127932548523,
        0.4554383158683777,
        0.5269910097122192,
        -0.5115845203399658
      ],
      [
        "l-lowerarm",
        0.7071065902709961,
        0.0005168779753148556,
        -0.0005168779753148556,
        -0.7071065902709961
      ],
      [
        "l-hand",
        0.6979694962501526,
        0.04875129088759422,
        -0.039020437747240067,
        -0.7133998274803162
      ]
    ]
  },
  {
    "time": 416.66666666666663,
    "data": [
      [
        "l-upperarm",
        0.5036587715148926,
        0.4442746639251709,
        0.5334144234657288,
        -0.5142149329185486
      ],
      [
        "l-lowerarm",
        0.7071064114570618,
        0.0007359556038863957,
        -0.000735955429263413,
        -0.7071064114570618
      ],
      [
        "l-hand",
        0.6952705979347229,
        0.060848455876111984,
        -0.04871617630124092,
        -0.7145089507102966
      ]
    ]
  },
  {
    "time": 458.3333333333333,
    "data": [
      [
        "l-upperarm",
        0.5041307806968689,
        0.43202200531959534,
        0.5403139591217041,
        -0.5169816613197327
      ],
      [
        "l-lowerarm",
        0.7071060538291931,
        0.0010095584439113736,
        -0.0010095586767420173,
        -0.7071060538291931
      ],
      [
        "l-hand",
        0.692123293876648,
        0.07406699657440186,
        -0.05931580066680908,
        -0.7155145406723022
      ]
    ]
  },
  {
    "time": 500.0,
    "data": [
      [
        "l-upperarm",
        0.5045149326324463,
        0.41873133182525635,
        0.5476237535476685,
        -0.5198432803153992
      ],
      [
        "l-lowerarm",
        0.7071055173873901,
        0.0013437507441267371,
        -0.0013437509769573808,
        -0.7071055173873901
      ],
      [
        "l-hand",
        0.6884930729866028,
        0.08833322674036026,
        -0.07076140493154526,
        -0.7163570523262024
      ]
    ]
  },
  {
    "time": 541.6666666666666,
    "data": [
      [
        "l-upperarm",
        0.5047826766967773,
        0.40445852279663086,
        0.555276095867157,
        -0.5227583646774292
      ],
      [
        "l-lowerarm",
        0.7071046233177185,
        0.001744596753269434,
        -0.001744596753269434,
        -0.7071046233177185
      ],
      [
        "l-hand",
        0.6843472719192505,
        0.1035667210817337,
        -0.08298969268798828,
        -0.7169767022132874
      ]
    ]
  },
  {
    "time": 583.3333333333333,
    "data": [
      [
        "l-upperarm",
        0.504906415939331,
        0.38926514983177185,
        0.5632022023200989,
        -0.5256857872009277
      ],
      [
        "l-lowerarm",
        0.7071033120155334,
        0.0022181656677275896,
        -0.0022181656677275896,
        -0.7071033120155334
      ],
      [
        "l-hand",
        0.6796568632125854,
        0.11967974901199341,
        -0.0959315150976181,
        -0.7173148393630981
      ]
    ]
  },
  {
    "time": 625.0,
    "data": [
      [
        "l-upperarm",
        0.5048605799674988,
        0.37321925163269043,
        0.5713326334953308,
        -0.5285851359367371
      ],
      [
        "l-lowerarm",
        0.7071013450622559,
        0.0027705258689820766,
        -0.0027705265674740076,
        -0.7071013450622559
      ],
      [
        "l-hand",
        0.6743978261947632,
        0.1365765482187271,
        -0.1095113530755043,
        -0.7173156142234802
      ]
    ]
  },
  {
    "time": 666.6666666666666,
    "data": [
      [
        "l-upperarm",
        0.5046218037605286,
        0.356395959854126,
        0.5795982480049133,
        -0.5314176678657532
      ],
      [
        "l-lowerarm",
        0.7070986032485962,
        0.0034077519085258245,
        -0.003407752374187112,
        -0.7070985436439514
      ],
      [
        "l-hand",
        0.6685530543327332,
        0.15415357053279877,
        -0.12364735454320908,
        -0.7169274091720581
      ]
    ]
  },
  {
    "time": 708.3333333333333,
    "data": [
      [
        "l-upperarm",
        0.5041698217391968,
        0.33887749910354614,
        0.5879301428794861,
        -0.5341469645500183
      ],
      [
        "l-lowerarm",
        0.7070947289466858,
        0.004135922994464636,
        -0.004135922994464636,
        -0.7070947289466858
      ],
      [
        "l-hand",
        0.6621134877204895,
        0.1722995787858963,
        -0.13825149834156036,
        -0.7161041498184204
      ]
    ]
  },
  {
    "time": 750.0,
    "data": [
      [
        "l-upperarm",
        0.5034878849983215,
        0.3207535743713379,
        0.596261739730835,
        -0.5367392301559448
      ],
      [
        "l-lowerarm",
        0.7070894241333008,
        0.004961113445460796,
        -0.004961113445460796,
        -0.7070894241333008
      ],
      [
        "l-hand",
        0.6550795435905457,
        0.1908966451883316,
        -0.15323041379451752,
        -0.7148075699806213
      ]
    ]
  },
  {
    "time": 791.6666666666666,
    "data": [
      [
        "l-upperarm",
        0.5025633573532104,
        0.302120566368103,
        0.6045286655426025,
        -0.5391644835472107
      ],
      [
        "l-lowerarm",
        0.7070822715759277,
        0.0058894082903862,
        -0.0058894082903862,
        -0.7070822715759277
      ],
      [
        "l-hand",
        0.6474621891975403,
        0.20982101559638977,
        -0.16848604381084442,
        -0.713007926940918
      ]
    ]
  },
  {
    "time": 833.3333333333333,
    "data": [
      [
        "l-upperarm",
        0.5013881921768188,
        0.28308114409446716,
        0.6126700639724731,
        -0.5413966774940491
      ],
      [
        "l-lowerarm",
        0.7070728540420532,
        0.006926888134330511,
        -0.006926888134330511,
        -0.7070728540420532
      ],
      [
        "l-hand",
        0.6392838954925537,
        0.22894544899463654,
        -0.18391729891300201,
        -0.7106859683990479
      ]
    ]
  },
  {
    "time": 875.0,
    "data": [
      [
        "l-upperarm",
        0.49995896220207214,
        0.26374351978302,
        0.6206297278404236,
        -0.5434144139289856
      ],
      [
        "l-lowerarm",
        0.7070606350898743,
        0.008079645223915577,
        -0.008079646155238152,
        -0.7070606350898743
      ],
      [
        "l-hand",
        0.6305787563323975,
        0.2481403946876526,
        -0.1994214504957199,
        -0.7078332901000977
      ]
    ]
  },
  {
    "time": 916.6666666666666,
    "data": [
      [
        "l-upperarm",
        0.4982773959636688,
        0.24422016739845276,
        0.6283561587333679,
        -0.5452014803886414
      ],
      [
        "l-lowerarm",
        0.7070448994636536,
        0.009353765286505222,
        -0.009353765286505222,
        -0.7070448994636536
      ],
      [
        "l-hand",
        0.6213923096656799,
        0.26727649569511414,
        -0.21489568054676056,
        -0.7044535875320435
      ]
    ]
  },
  {
    "time": 958.3333333333333,
    "data": [
      [
        "l-upperarm",
        0.4963502883911133,
        0.22462663054466248,
        0.6358044743537903,
        -0.5467466711997986
      ],
      [
        "l-lowerarm",
        0.7070249915122986,
        0.010755328461527824,
        -0.010755328461527824,
        -0.7070249915122986
      ],
      [
        "l-hand",
        0.6117814779281616,
        0.28622686862945557,
        -0.23023906350135803,
        -0.7005622982978821
      ]
    ]
  },
  {
    "time": 1000.0,
    "data": [
      [
        "l-upperarm",
        0.49418923258781433,
        0.20508059859275818,
        0.6429355144500732,
        -0.5480446219444275
      ],
      [
        "l-lowerarm",
        0.7069999575614929,
        0.012290424667298794,
        -0.012290424667298794,
        -0.7069999575614929
      ],
      [
        "l-hand",
        0.6018134951591492,
        0.30486929416656494,
        -0.2453545480966568,
        -0.6961870789527893
      ]
    ]
  },
  {
    "time": 1041.6666666666665,
    "data": [
      [
        "l-upperarm",
        0.4918106496334076,
        0.18569986522197723,
        0.6497172117233276,
        -0.549095094203949
      ],
      [
        "l-lowerarm",
        0.7069689035415649,
        0.01396513357758522,
        -0.013965136371552944,
        -0.7069689035415649
      ],
      [
        "l-hand",
        0.5915643572807312,
        0.3230881690979004,
        -0.26015007495880127,
        -0.6913664937019348
      ]
    ]
  },
  {
    "time": 1083.3333333333333,
    "data": [
      [
        "l-upperarm",
        0.48923537135124207,
        0.16660118103027344,
        0.656124472618103,
        -0.549903154373169
      ],
      [
        "l-lowerarm",
        0.7069305777549744,
        0.015785526484251022,
        -0.015785526484251022,
        -0.7069305777549744
      ],
      [
        "l-hand",
        0.5811179876327515,
        0.34077635407447815,
        -0.2745404541492462,
        -0.6861493587493896
      ]
    ]
  },
  {
    "time": 1125.0,
    "data": [
      [
        "l-upperarm",
        0.4864879548549652,
        0.14789941906929016,
        0.6621391177177429,
        -0.5504789352416992
      ],
      [
        "l-lowerarm",
        0.7068837881088257,
        0.017757661640644073,
        -0.017757661640644073,
        -0.7068837881088257
      ],
      [
        "l-hand",
        0.5705636143684387,
        0.35783660411834717,
        -0.2884484529495239,
        -0.6805936098098755
      ]
    ]
  },
  {
    "time": 1166.6666666666665,
    "data": [
      [
        "l-upperarm",
        0.48359644412994385,
        0.1297062486410141,
        0.6677494645118713,
        -0.550836980342865
      ],
      [
        "l-lowerarm",
        0.7068270444869995,
        0.019887590780854225,
        -0.019887590780854225,
        -0.7068271040916443
      ],
      [
        "l-hand",
        0.5599945783615112,
        0.37418264150619507,
        -0.3018055260181427,
        -0.6747643351554871
      ]
    ]
  },
  {
    "time": 1208.3333333333333,
    "data": [
      [
        "l-upperarm",
        0.4805917739868164,
        0.11212871968746185,
        0.6729503273963928,
        -0.5509960651397705
      ],
      [
        "l-lowerarm",
        0.7067587971687317,
        0.022181322798132896,
        -0.022181322798132896,
        -0.7067587971687317
      ],
      [
        "l-hand",
        0.549506664276123,
        0.38973909616470337,
        -0.3145518898963928,
        -0.6687324047088623
      ]
    ]
  },
  {
    "time": 1250.0,
    "data": [
      [
        "l-upperarm",
        0.47750669717788696,
        0.09526972472667694,
        0.6777420043945312,
        -0.5509781241416931
      ],
      [
        "l-lowerarm",
        0.7066771984100342,
        0.024644864723086357,
        -0.024644864723086357,
        -0.7066771984100342
      ],
      [
        "l-hand",
        0.5391956567764282,
        0.40444231033325195,
        -0.3266371190547943,
        -0.6625728011131287
      ]
    ]
  },
  {
    "time": 1291.6666666666665,
    "data": [
      [
        "l-upperarm",
        0.47437572479248047,
        0.07922644168138504,
        0.6821300387382507,
        -0.5508080124855042
      ],
      [
        "l-lowerarm",
        0.7065802216529846,
        0.027284177020192146,
        -0.027284177020192146,
        -0.7065802216529846
      ],
      [
        "l-hand",
        0.5291568636894226,
        0.41823914647102356,
        -0.338019460439682,
        -0.6563626527786255
      ]
    ]
  },
  {
    "time": 1333.3333333333333,
    "data": [
      [
        "l-upperarm",
        0.47123420238494873,
        0.06409118324518204,
        0.6861240863800049,
        -0.5505128502845764
      ],
      [
        "l-lowerarm",
        0.7064656615257263,
        0.03010517731308937,
        -0.03010517731308937,
        -0.7064656615257263
      ],
      [
        "l-hand",
        0.5194830894470215,
        0.43108657002449036,
        -0.34866517782211304,
        -0.6501802206039429
      ]
    ]
  },
  {
    "time": 1375.0,
    "data": [
      [
        "l-upperarm",
        0.46811792254447937,
        0.04995084926486015,
        0.6897371411323547,
        -0.5501210689544678
      ],
      [
        "l-lowerarm",
        0.7063310146331787,
        0.03311371058225632,
        -0.03311371058225632,
        -0.7063310146331787
      ],
      [
        "l-hand",
        0.5102642178535461,
        0.4429505169391632,
        -0.35854780673980713,
        -0.6441030502319336
      ]
    ]
  },
  {
    "time": 1416.6666666666665,
    "data": [
      [
        "l-upperarm",
        0.46506232023239136,
        0.0368877612054348,
        0.6929847598075867,
        -0.5496621131896973
      ],
      [
        "l-lowerarm",
        0.7061735987663269,
        0.03631558641791344,
        -0.03631558641791344,
        -0.7061735987663269
      ],
      [
        "l-hand",
        0.5015864968299866,
        0.4538041055202484,
        -0.3676469326019287,
        -0.6382073163986206
      ]
    ]
  },
  {
    "time": 1458.3333333333333,
    "data": [
      [
        "l-upperarm",
        0.4621025621891022,
        0.024979734793305397,
        0.6958839297294617,
        -0.5491656064987183
      ],
      [
        "l-lowerarm",
        0.7059905529022217,
        0.03971652686595917,
        -0.03971652686595917,
        -0.7059905529022217
      ],
      [
        "l-hand",
        0.49353188276290894,
        0.4636264741420746,
        -0.375946968793869,
        -0.6325667500495911
      ]
    ]
  },
  {
    "time": 1500.0,
    "data": [
      [
        "l-upperarm",
        0.459272563457489,
        0.014302043244242668,
        0.6984522938728333,
        -0.5486607551574707
      ],
      [
        "l-lowerarm",
        0.7057784199714661,
        0.0433221273124218,
        -0.0433221198618412,
        -0.7057784795761108
      ],
      [
        "l-hand",
        0.48617878556251526,
        0.4724005162715912,
        -0.38343557715415955,
        -0.6272520422935486
      ]
    ]
  },
  {
    "time": 1541.6666666666665,
    "data": [
      [
        "l-upperarm",
        0.4566049575805664,
        0.004926532506942749,
        0.700707197189331,
        -0.5481761693954468
      ],
      [
        "l-lowerarm",
        0.7055338621139526,
        0.04713791236281395,
        -0.04713791236281395,
        -0.7055338621139526
      ],
      [
        "l-hand",
        0.47960132360458374,
        0.48011189699172974,
        -0.3901028037071228,
        -0.6223303079605103
      ]
    ]
  },
  {
    "time": 1583.3333333333333,
    "data": [
      [
        "l-upperarm",
        0.45413097739219666,
        -0.0030752508901059628,
        0.7026646137237549,
        -0.5477390885353088
      ],
      [
        "l-lowerarm",
        0.7052529454231262,
        0.05116922780871391,
        -0.05116921663284302,
        -0.705253005027771
      ],
      [
        "l-hand",
        0.4738706350326538,
        0.4867459833621979,
        -0.3959386348724365,
        -0.6178653836250305
      ]
    ]
  },
  {
    "time": 1625.0,
    "data": [
      [
        "l-upperarm",
        0.4518798291683197,
        -0.009632370434701443,
        0.704338550567627,
        -0.5473747849464417
      ],
      [
        "l-lowerarm",
        0.7049315571784973,
        0.05542128160595894,
        -0.05542128160595894,
        -0.7049315571784973
      ],
      [
        "l-hand",
        0.4690544307231903,
        0.4922873079776764,
        -0.4009326994419098,
        -0.6139170527458191
      ]
    ]
  },
  {
    "time": 1666.6666666666665,
    "data": [
      [
        "l-upperarm",
        0.44987884163856506,
        -0.014672322198748589,
        0.7057396173477173,
        -0.5471063852310181
      ],
      [
        "l-lowerarm",
        0.704565167427063,
        0.05989914759993553,
        -0.05989914759993553,
        -0.704565167427063
      ],
      [
        "l-hand",
        0.4652183949947357,
        0.4967169761657715,
        -0.40507200360298157,
        -0.6105414032936096
      ]
    ]
  },
  {
    "time": 1708.3333333333333,
    "data": [
      [
        "l-upperarm",
        0.44815289974212646,
        -0.01812024600803852,
        0.7068746089935303,
        -0.5469542741775513
      ],
      [
        "l-lowerarm",
        0.704149067401886,
        0.06460760533809662,
        -0.06460760533809662,
        -0.704149067401886
      ],
      [
        "l-hand",
        0.4624268412590027,
        0.5000103712081909,
        -0.4083394706249237,
        -0.607791006565094
      ]
    ]
  },
  {
    "time": 1750.0,
    "data": [
      [
        "l-upperarm",
        0.44667911529541016,
        -0.02044106461107731,
        0.7078397274017334,
        -0.546829879283905
      ],
      [
        "l-lowerarm",
        0.7035055160522461,
        0.06954836845397949,
        -0.06977962702512741,
        -0.703827977180481
      ],
      [
        "l-hand",
        0.4604808986186981,
        0.5023432374000549,
        -0.41077926754951477,
        -0.6056970953941345
      ]
    ]
  },
  {
    "time": 1791.6666666666665,
    "data": [
      [
        "l-upperarm",
        0.44541189074516296,
        -0.02220146730542183,
        0.7087271809577942,
        -0.5466453433036804
      ],
      [
        "l-lowerarm",
        0.7024761438369751,
        0.07473023980855942,
        -0.07562348991632462,
        -0.7037214636802673
      ],
      [
        "l-hand",
        0.4590650498867035,
        0.5040091872215271,
        -0.412553608417511,
        -0.604180097579956
      ]
    ]
  },
  {
    "time": 1833.3333333333333,
    "data": [
      [
        "l-upperarm",
        0.4443399906158447,
        -0.023476557806134224,
        0.7095330357551575,
        -0.5464190244674683
      ],
      [
        "l-lowerarm",
        0.7010830044746399,
        0.08016858249902725,
        -0.08210694044828415,
        -0.7037855386734009
      ],
      [
        "l-hand",
        0.45806580781936646,
        0.5051510334014893,
        -0.41381436586380005,
        -0.603121817111969
      ]
    ]
  },
  {
    "time": 1875.0,
    "data": [
      [
        "l-upperarm",
        0.4434514045715332,
        -0.02434033900499344,
        0.7102521657943726,
        -0.5461686849594116
      ],
      [
        "l-lowerarm",
        0.6993475556373596,
        0.08587877452373505,
        -0.08919807523488998,
        -0.7039754986763
      ],
      [
        "l-hand",
        0.4573681950569153,
        0.5059077143669128,
        -0.4147098958492279,
        -0.6024014949798584
      ]
    ]
  },
  {
    "time": 1916.6666666666665,
    "data": [
      [
        "l-upperarm",
        0.44273412227630615,
        -0.024867672473192215,
        0.7108789086341858,
        -0.5459114909172058
      ],
      [
        "l-lowerarm",
        0.6972902417182922,
        0.09187629073858261,
        -0.09686510264873505,
        -0.7042458653450012
      ],
      [
        "l-hand",
        0.4568566083908081,
        0.5064151883125305,
        -0.4153859615325928,
        -0.6018971800804138
      ]
    ]
  },
  {
    "time": 1958.3333333333333,
    "data": [
      [
        "l-upperarm",
        0.4421756863594055,
        -0.025132518261671066,
        0.7114068269729614,
        -0.5456641912460327
      ],
      [
        "l-lowerarm",
        0.6949306726455688,
        0.09817670285701752,
        -0.10507656633853912,
        -0.7045507431030273
      ],
      [
        "l-hand",
        0.4564148187637329,
        0.5068079829216003,
        -0.41598713397979736,
        -0.6014864444732666
      ]
    ]
  },
  {
    "time": 2000.0,
    "data": [
      [
        "l-upperarm",
        0.4417634606361389,
        -0.025209296494722366,
        0.7118295431137085,
        -0.5454431772232056
      ],
      [
        "l-lowerarm",
        0.6922879219055176,
        0.10479553788900375,
        -0.11380098760128021,
        -0.7048436999320984
      ],
      [
        "l-hand",
        0.45592591166496277,
        0.5072199702262878,
        -0.41665756702423096,
        -0.6010457873344421
      ]
    ]
  },
  {
    "time": 2041.6666666666665,
    "data": [
      [
        "l-upperarm",
        0.44148483872413635,
        -0.025172114372253418,
        0.7121400237083435,
        -0.5452651381492615
      ],
      [
        "l-lowerarm",
        0.689380943775177,
        0.11174863576889038,
        -0.12300734221935272,
        -0.7050782442092896
      ],
      [
        "l-hand",
        0.45527252554893494,
        0.5077845454216003,
        -0.4175407886505127,
        -0.6004511117935181
      ]
    ]
  },
  {
    "time": 2083.333333333333,
    "data": [
      [
        "l-upperarm",
        0.44132697582244873,
        -0.025095492601394653,
        0.7123315334320068,
        -0.5451464056968689
      ],
      [
        "l-lowerarm",
        0.6862281560897827,
        0.11905178427696228,
        -0.1326645165681839,
        -0.7052075862884521
      ],
      [
        "l-hand",
        0.45433634519577026,
        0.5086344480514526,
        -0.4187799394130707,
        -0.5995771884918213
      ]
    ]
  },
  {
    "time": 2125.0,
    "data": [
      [
        "l-upperarm",
        0.4412771761417389,
        -0.025053447112441063,
        0.7123969197273254,
        -0.545103132724762
      ],
      [
        "l-lowerarm",
        0.6828479170799255,
        0.12672105431556702,
        -0.14274172484874725,
        -0.7051845788955688
      ],
      [
        "l-hand",
        0.45299774408340454,
        0.509901225566864,
        -0.4205172061920166,
        -0.5982968807220459
      ]
    ]
  },
  {
    "time": 2166.6666666666665,
    "data": [
      [
        "l-upperarm",
        0.44210585951805115,
        -0.024220991879701614,
        0.711738646030426,
        -0.5453291535377502
      ],
      [
        "l-lowerarm",
        0.6792592406272888,
        0.13475100696086884,
        -0.15319111943244934,
        -0.7049691677093506
      ],
      [
        "l-hand",
        0.4511704444885254,
        0.5116784572601318,
        -0.4228529930114746,
        -0.5965113639831543
      ]
    ]
  },
  {
    "time": 2208.333333333333,
    "data": [
      [
        "l-upperarm",
        0.44448500871658325,
        -0.02182629518210888,
        0.7098376154899597,
        -0.5459737181663513
      ],
      [
        "l-lowerarm",
        0.6754862666130066,
        0.14305046200752258,
        -0.1638970524072647,
        -0.7045513391494751
      ],
      [
        "l-hand",
        0.4488959014415741,
        0.5139162540435791,
        -0.42572709918022156,
        -0.5942550897598267
      ]
    ]
  },
  {
    "time": 2250.0,
    "data": [
      [
        "l-upperarm",
        0.44824984669685364,
        -0.018022017553448677,
        0.7067956924438477,
        -0.546980082988739
      ],
      [
        "l-lowerarm",
        0.6715604066848755,
        0.1515064239501953,
        -0.17472606897354126,
        -0.7039341330528259
      ],
      [
        "l-hand",
        0.4462454915046692,
        0.5165273547172546,
        -0.4290381968021393,
        -0.5916000604629517
      ]
    ]
  },
  {
    "time": 2291.6666666666665,
    "data": [
      [
        "l-upperarm",
        0.4532308876514435,
        -0.012960398569703102,
        0.7027066946029663,
        -0.548285722732544
      ],
      [
        "l-lowerarm",
        0.6675201654434204,
        0.160005584359169,
        -0.1855444759130478,
        -0.7031275629997253
      ],
      [
        "l-hand",
        0.4432910680770874,
        0.519426167011261,
        -0.43268558382987976,
        -0.5886193513870239
      ]
    ]
  },
  {
    "time": 2333.333333333333,
    "data": [
      [
        "l-upperarm",
        0.45925581455230713,
        -0.006793870124965906,
        0.6976606845855713,
        -0.5498250722885132
      ],
      [
        "l-lowerarm",
        0.6634114980697632,
        0.16843539476394653,
        -0.19621916115283966,
        -0.7021487355232239
      ],
      [
        "l-hand",
        0.4401065409183502,
        0.5225270986557007,
        -0.4365692734718323,
        -0.5853878855705261
      ]
    ]
  },
  {
    "time": 2375.0,
    "data": [
      [
        "l-upperarm",
        0.4661509096622467,
        0.00032369166729040444,
        0.6917484402656555,
        -0.5515318512916565
      ],
      [
        "l-lowerarm",
        0.6592873334884644,
        0.1766839474439621,
        -0.20661771297454834,
        -0.701022207736969
      ],
      [
        "l-hand",
        0.4367672801017761,
        0.5257470011711121,
        -0.44059059023857117,
        -0.5819831490516663
      ]
    ]
  },
  {
    "time": 2416.6666666666665,
    "data": [
      [
        "l-upperarm",
        0.4737423360347748,
        0.008237022906541824,
        0.6850647926330566,
        -0.5533413290977478
      ],
      [
        "l-lowerarm",
        0.6552073955535889,
        0.18464083969593048,
        -0.21660958230495453,
        -0.6997794508934021
      ],
      [
        "l-hand",
        0.4333507716655731,
        0.5290047526359558,
        -0.44465285539627075,
        -0.5784851312637329
      ]
    ]
  },
  {
    "time": 2458.333333333333,
    "data": [
      [
        "l-upperarm",
        0.48185834288597107,
        0.016788989305496216,
        0.6777108311653137,
        -0.5551925897598267
      ],
      [
        "l-lowerarm",
        0.6512372493743896,
        0.19219756126403809,
        -0.22606636583805084,
        -0.6984584927558899
      ],
      [
        "l-hand",
        0.429936945438385,
        0.532221257686615,
        -0.44866082072257996,
        -0.5749768018722534
      ]
    ]
  },
  {
    "time": 2500.0,
    "data": [
      [
        "l-upperarm",
        0.4903304874897003,
        0.02582099288702011,
        0.6697962880134583,
        -0.5570299029350281
      ],
      [
        "l-lowerarm",
        0.6474475264549255,
        0.19924739003181458,
        -0.23486189544200897,
        -0.6971027255058289
      ],
      [
        "l-hand",
        0.4266068935394287,
        0.5353206992149353,
        -0.4525223672389984,
        -0.5715434551239014
      ]
    ]
  },
  {
    "time": 2541.6666666666665,
    "data": [
      [
        "l-upperarm",
        0.49899521470069885,
        0.035173289477825165,
        0.6614407896995544,
        -0.5588047504425049
      ],
      [
        "l-lowerarm",
        0.6439128518104553,
        0.20568592846393585,
        -0.24287275969982147,
        -0.6957603096961975
      ],
      [
        "l-hand",
        0.42344409227371216,
        0.5382294058799744,
        -0.45614707469940186,
        -0.5682729482650757
      ]
    ]
  },
  {
    "time": 2583.333333333333,
    "data": [
      [
        "l-upperarm",
        0.5076960921287537,
        0.04468642920255661,
        0.6527740359306335,
        -0.560476541519165
      ],
      [
        "l-lowerarm",
        0.6407108902931213,
        0.2114104926586151,
        -0.249977707862854,
        -0.6944828033447266
      ],
      [
        "l-hand",
        0.420532763004303,
        0.5408767461776733,
        -0.4594472348690033,
        -0.5652547478675842
      ]
    ]
  },
  {
    "time": 2625.0,
    "data": [
      [
        "l-upperarm",
        0.5162844061851501,
        0.05420137569308281,
        0.6439359784126282,
        -0.5620134472846985
      ],
      [
        "l-lowerarm",
        0.6379203796386719,
        0.21632011234760284,
        -0.256057471036911,
        -0.6933237910270691
      ],
      [
        "l-hand",
        0.4179585874080658,
        0.5431934595108032,
        -0.4623366594314575,
        -0.5625799894332886
      ]
    ]
  },
  {
    "time": 2666.6666666666665,
    "data": [
      [
        "l-upperarm",
        0.5246208310127258,
        0.06356113404035568,
        0.6350759863853455,
        -0.5633929371833801
      ],
      [
        "l-lowerarm",
        0.6356203556060791,
        0.22031472623348236,
        -0.26099392771720886,
        -0.692336916923523
      ],
      [
        "l-hand",
        0.4158077836036682,
        0.5451124310493469,
        -0.4647309184074402,
        -0.5603406429290771
      ]
    ]
  },
  {
    "time": 2708.333333333333,
    "data": [
      [
        "l-upperarm",
        0.5325754284858704,
        0.07261133193969727,
        0.6263515949249268,
        -0.5646013617515564
      ],
      [
        "l-lowerarm",
        0.6338884234428406,
        0.2232941836118698,
        -0.26466891169548035,
        -0.6915746927261353
      ],
      [
        "l-hand",
        0.4141658842563629,
        0.5465668439865112,
        -0.466545969247818,
        -0.5586287379264832
      ]
    ]
  },
  {
    "time": 2750.0,
    "data": [
      [
        "l-upperarm",
        0.5400283336639404,
        0.08120063692331314,
        0.617927610874176,
        -0.5656335949897766
      ],
      [
        "l-lowerarm",
        0.632798969745636,
        0.22515766322612762,
        -0.2669633626937866,
        -0.6910861730575562
      ],
      [
        "l-hand",
        0.413118839263916,
        0.547490119934082,
        -0.4676979184150696,
        -0.557535707950592
      ]
    ]
  },
  {
    "time": 2791.6666666666665,
    "data": [
      [
        "l-upperarm",
        0.5468684434890747,
        0.08918168395757675,
        0.6099739074707031,
        -0.5664921402931213
      ],
      [
        "l-lowerarm",
        0.6324214935302734,
        0.22580218315124512,
        -0.26775580644607544,
        -0.6909148097038269
      ],
      [
        "l-hand",
        0.41275137662887573,
        0.5478134751319885,
        -0.46810126304626465,
        -0.5571516156196594
      ]
    ]
  },
  {
    "time": 2833.333333333333,
    "data": [
      [
        "l-upperarm",
        0.5529994964599609,
        0.09641844034194946,
        0.6026563048362732,
        -0.5671864151954651
      ],
      [
        "l-lowerarm",
        0.6332152485847473,
        0.22451630234718323,
        -0.26613014936447144,
        -0.6912349462509155
      ],
      [
        "l-hand",
        0.41497331857681274,
        0.5458864569664001,
        -0.4656437337398529,
        -0.559447169303894
      ]
    ]
  },
  {
    "time": 2875.0,
    "data": [
      [
        "l-upperarm",
        0.5583568811416626,
        0.10280868411064148,
        0.5961106419563293,
        -0.5677325129508972
      ],
      [
        "l-lowerarm",
        0.6352478265762329,
        0.22119440138339996,
        -0.261930912733078,
        -0.6920443773269653
      ],
      [
        "l-hand",
        0.42108407616615295,
        0.5404922366142273,
        -0.45878866314888,
        -0.5657467246055603
      ]
    ]
  },
  {
    "time": 2916.6666666666665,
    "data": [
      [
        "l-upperarm",
        0.5628826022148132,
        0.1082574650645256,
        0.5904667973518372,
        -0.5681482553482056
      ],
      [
        "l-lowerarm",
        0.6379932165145874,
        0.21663951873779297,
        -0.25617408752441406,
        -0.6931138038635254
      ],
      [
        "l-hand",
        0.4302196800708771,
        0.5321620106697083,
        -0.4482686519622803,
        -0.575126051902771
      ]
    ]
  },
  {
    "time": 2958.333333333333,
    "data": [
      [
        "l-upperarm",
        0.5665177702903748,
        0.11266810446977615,
        0.5858557820320129,
        -0.5684510469436646
      ],
      [
        "l-lowerarm",
        0.6409391760826111,
        0.21166107058525085,
        -0.24988315999507904,
        -0.6942298412322998
      ],
      [
        "l-hand",
        0.4414938688278198,
        0.5214202404022217,
        -0.434814989566803,
        -0.5866345763206482
      ]
    ]
  },
  {
    "time": 3000.0,
    "data": [
      [
        "l-upperarm",
        0.5692000389099121,
        0.1159428060054779,
        0.5824077129364014,
        -0.5686562657356262
      ],
      [
        "l-lowerarm",
        0.6436008810997009,
        0.20707817375659943,
        -0.2440931797027588,
        -0.695208728313446
      ],
      [
        "l-hand",
        0.4540243148803711,
        0.5088444948196411,
        -0.4192120134830475,
        -0.5993334650993347
      ]
    ]
  },
  {
    "time": 3041.6666666666665,
    "data": [
      [
        "l-upperarm",
        0.5708631277084351,
        0.11798198521137238,
        0.5802500247955322,
        -0.5687755346298218
      ],
      [
        "l-lowerarm",
        0.6455217003822327,
        0.2037188708782196,
        -0.2398497760295868,
        -0.6958968639373779
      ],
      [
        "l-hand",
        0.4669620394706726,
        0.49510085582733154,
        -0.4023268520832062,
        -0.6123355031013489
      ]
    ]
  },
  {
    "time": 3083.333333333333,
    "data": [
      [
        "l-upperarm",
        0.571434736251831,
        0.11868441849946976,
        0.5795047879219055,
        -0.5688150525093079
      ],
      [
        "l-lowerarm",
        0.6462606191635132,
        0.2024145871400833,
        -0.23820242285728455,
        -0.6961574554443359
      ],
      [
        "l-hand",
        0.47952133417129517,
        0.48095595836639404,
        -0.3851156234741211,
        -0.6248413324356079
      ]
    ]
  },
  {
    "time": 3125.0,
    "data": [
      [
        "l-upperarm",
        0.5712912082672119,
        0.11850794404745102,
        0.5796920657157898,
        -0.5688052773475647
      ],
      [
        "l-lowerarm",
        0.6454625725746155,
        0.20382292568683624,
        -0.23998121917247772,
        -0.6958759427070618
      ],
      [
        "l-hand",
        0.49100252985954285,
        0.46726787090301514,
        -0.36860859394073486,
        -0.6361643075942993
      ]
    ]
  },
  {
    "time": 3166.6666666666665,
    "data": [
      [
        "l-upperarm",
        0.5708782076835632,
        0.11800047755241394,
        0.5802302956581116,
        -0.568776547908783
      ],
      [
        "l-lowerarm",
        0.6432766318321228,
        0.20764082670211792,
        -0.24480397999286652,
        -0.6950910091400146
      ],
      [
        "l-hand",
        0.5008004903793335,
        0.4549609422683716,
        -0.35388317704200745,
        -0.6457369327545166
      ]
    ]
  },
  {
    "time": 3208.333333333333,
    "data": [
      [
        "l-upperarm",
        0.5702219605445862,
        0.11719505488872528,
        0.5810837149620056,
        -0.5687301754951477
      ],
      [
        "l-lowerarm",
        0.6400028467178345,
        0.21325376629829407,
        -0.25189557671546936,
        -0.6938788890838623
      ],
      [
        "l-hand",
        0.5083928108215332,
        0.44499433040618896,
        -0.3420334756374359,
        -0.653092622756958
      ]
    ]
  },
  {
    "time": 3250.0,
    "data": [
      [
        "l-upperarm",
        0.5693482756614685,
        0.11612424999475479,
        0.5822160243988037,
        -0.5686671137809753
      ],
      [
        "l-lowerarm",
        0.6359445452690125,
        0.2200460582971573,
        -0.2604794502258301,
        -0.6923183798789978
      ],
      [
        "l-hand",
        0.5133059620857239,
        0.4383304715156555,
        -0.3341465890407562,
        -0.6578217148780823
      ]
    ]
  },
  {
    "time": 3291.6666666666665,
    "data": [
      [
        "l-upperarm",
        0.5682829022407532,
        0.11482110619544983,
        0.5835910439491272,
        -0.5685878396034241
      ],
      [
        "l-lowerarm",
        0.6314265727996826,
        0.2274051159620285,
        -0.2697823941707611,
        -0.6905105710029602
      ],
      [
        "l-hand",
        0.5150606632232666,
        0.4359079599380493,
        -0.33128640055656433,
        -0.6595044732093811
      ]
    ]
  },
  {
    "time": 3333.333333333333,
    "data": [
      [
        "l-upperarm",
        0.5670515298843384,
        0.11331842094659805,
        0.5851726531982422,
        -0.568493127822876
      ],
      [
        "l-lowerarm",
        0.626804769039154,
        0.2347268909215927,
        -0.27904102206230164,
        -0.688589334487915
      ],
      [
        "l-hand",
        0.5128804445266724,
        0.4389147162437439,
        -0.3348369300365448,
        -0.6574130654335022
      ]
    ]
  },
  {
    "time": 3375.0,
    "data": [
      [
        "l-upperarm",
        0.5656801462173462,
        0.11164907366037369,
        0.5869244933128357,
        -0.5683838129043579
      ],
      [
        "l-lowerarm",
        0.6224681735038757,
        0.24141889810562134,
        -0.2875059247016907,
        -0.6867246031761169
      ],
      [
        "l-hand",
        0.5068072080612183,
        0.44710832834243774,
        -0.34454137086868286,
        -0.6515611410140991
      ]
    ]
  },
  {
    "time": 3416.6666666666665,
    "data": [
      [
        "l-upperarm",
        0.5641946792602539,
        0.109845831990242,
        0.5888105630874634,
        -0.5682607889175415
      ],
      [
        "l-lowerarm",
        0.6188338994979858,
        0.24690212309360504,
        -0.29444363713264465,
        -0.6851181983947754
      ],
      [
        "l-hand",
        0.49747925996780396,
        0.4592004418373108,
        -0.3589439392089844,
        -0.6425018310546875
      ]
    ]
  },
  {
    "time": 3458.333333333333,
    "data": [
      [
        "l-upperarm",
        0.5626217126846313,
        0.10794190317392349,
        0.5907951593399048,
        -0.5681254267692566
      ],
      [
        "l-lowerarm",
        0.6163359880447388,
        0.2506076395511627,
        -0.2991330623626709,
        -0.6839920878410339
      ],
      [
        "l-hand",
        0.4855424463748932,
        0.47387200593948364,
        -0.37655535340309143,
        -0.6307930946350098
      ]
    ]
  },
  {
    "time": 3500.0,
    "data": [
      [
        "l-upperarm",
        0.5609877109527588,
        0.10597024112939835,
        0.5928428173065186,
        -0.5679793357849121
      ],
      [
        "l-lowerarm",
        0.6154093146324158,
        0.25196966528892517,
        -0.30085691809654236,
        -0.6835699081420898
      ],
      [
        "l-hand",
        0.4717372953891754,
        0.48982003331184387,
        -0.39588212966918945,
        -0.6171043515205383
      ]
    ]
  },
  {
    "time": 3541.6666666666665,
    "data": [
      [
        "l-upperarm",
        0.5593199729919434,
        0.10396432876586914,
        0.594918429851532,
        -0.5678245425224304
      ],
      [
        "l-lowerarm",
        0.6155345439910889,
        0.25178593397140503,
        -0.30062440037727356,
        -0.6836271286010742
      ],
      [
        "l-hand",
        0.4569440484046936,
        0.5058125257492065,
        -0.41547247767448425,
        -0.6022776961326599
      ]
    ]
  },
  {
    "time": 3583.333333333333,
    "data": [
      [
        "l-upperarm",
        0.5576459765434265,
        0.10195714235305786,
        0.5969874262809753,
        -0.5676633715629578
      ],
      [
        "l-lowerarm",
        0.6159089803695679,
        0.25123605132102966,
        -0.2999284267425537,
        -0.6837978959083557
      ],
      [
        "l-hand",
        0.4421883523464203,
        0.5207412242889404,
        -0.43396857380867004,
        -0.5873409509658813
      ]
    ]
  },
  {
    "time": 3625.0,
    "data": [
      [
        "l-upperarm",
        0.5559937357902527,
        0.09998218715190887,
        0.5990156531333923,
        -0.5674987435340881
      ],
      [
        "l-lowerarm",
        0.6165299415588379,
        0.250321626663208,
        -0.2987711429595947,
        -0.684080183506012
      ],
      [
        "l-hand",
        0.428610235452652,
        0.5336532592773438,
        -0.4501461684703827,
        -0.5734771490097046
      ]
    ]
  },
  {
    "time": 3666.6666666666665,
    "data": [
      [
        "l-upperarm",
        0.554391622543335,
        0.09807278960943222,
        0.6009693145751953,
        -0.5673337578773499
      ],
      [
        "l-lowerarm",
        0.6173940896987915,
        0.24904413521289825,
        -0.29715433716773987,
        -0.6844712495803833
      ],
      [
        "l-hand",
        0.4174172282218933,
        0.5437458753585815,
        -0.4629192650318146,
        -0.561968982219696
      ]
    ]
  },
  {
    "time": 3708.333333333333,
    "data": [
      [
        "l-upperarm",
        0.5528681874275208,
        0.09626267105340958,
        0.6028149724006653,
        -0.5671722888946533
      ],
      [
        "l-lowerarm",
        0.6184972524642944,
        0.24740444123744965,
        -0.2950793206691742,
        -0.6849673986434937
      ],
      [
        "l-hand",
        0.40983182191848755,
        0.5503182411193848,
        -0.4713025689125061,
        -0.5541315078735352
      ]
    ]
  },
  {
    "time": 3750.0,
    "data": [
      [
        "l-upperarm",
        0.55145263671875,
        0.09458501636981964,
        0.6045198440551758,
        -0.5670180916786194
      ],
      [
        "l-lowerarm",
        0.6198346614837646,
        0.24540327489376068,
        -0.2925470769405365,
        -0.685564398765564
      ],
      [
        "l-hand",
        0.4070480465888977,
        0.5526780486106873,
        -0.47432586550712585,
        -0.5512475967407227
      ]
    ]
  },
  {
    "time": 3791.6666666666665,
    "data": [
      [
        "l-upperarm",
        0.5501740574836731,
        0.0930735394358635,
        0.6060511469841003,
        -0.5668755173683167
      ],
      [
        "l-lowerarm",
        0.6214007139205933,
        0.24304096400737762,
        -0.289558082818985,
        -0.6862568259239197
      ],
      [
        "l-hand",
        0.40706804394721985,
        0.5526551008224487,
        -0.4742967188358307,
        -0.5512808561325073
      ]
    ]
  },
  {
    "time": 3833.333333333333,
    "data": [
      [
        "l-upperarm",
        0.5490620732307434,
        0.09176178276538849,
        0.6073766350746155,
        -0.566748857498169
      ],
      [
        "l-lowerarm",
        0.623189389705658,
        0.24031752347946167,
        -0.28611257672309875,
        -0.6870387196540833
      ],
      [
        "l-hand",
        0.4072391390800476,
        0.5524976253509521,
        -0.47409507632255554,
        -0.5514858365058899
      ]
    ]
  },
  {
    "time": 3875.0,
    "data": [
      [
        "l-upperarm",
        0.54814612865448,
        0.09068316221237183,
        0.6084640026092529,
        -0.5666427612304688
      ],
      [
        "l-lowerarm",
        0.6251935362815857,
        0.23723269999027252,
        -0.28221040964126587,
        -0.6879033446311951
      ],
      [
        "l-hand",
        0.407728374004364,
        0.552071213722229,
        -0.4735488295555115,
        -0.5520204901695251
      ]
    ]
  },
  {
    "time": 3916.6666666666665,
    "data": [
      [
        "l-upperarm",
        0.5474556684494019,
        0.08987127244472504,
        0.6092808842658997,
        -0.566561758518219
      ],
      [
        "l-lowerarm",
        0.6274059414863586,
        0.23378580808639526,
        -0.27785083651542664,
        -0.6888432502746582
      ],
      [
        "l-hand",
        0.4087013602256775,
        0.5512409806251526,
        -0.472485214471817,
        -0.5530411005020142
      ]
    ]
  },
  {
    "time": 3958.333333333333,
    "data": [
      [
        "l-upperarm",
        0.5470200777053833,
        0.08935967087745667,
        0.6097951531410217,
        -0.5665101408958435
      ],
      [
        "l-lowerarm",
        0.6298182010650635,
        0.22997602820396423,
        -0.273033082485199,
        -0.6898499727249146
      ],
      [
        "l-hand",
        0.4103221893310547,
        0.5498691201210022,
        -0.4707290232181549,
        -0.5547016859054565
      ]
    ]
  },
  {
    "time": 4000.0,
    "data": [
      [
        "l-upperarm",
        0.5468684434890747,
        0.08918168395757675,
        0.6099739074707031,
        -0.5664921402931213
      ],
      [
        "l-lowerarm",
        0.6324214935302734,
        0.22580218315124512,
        -0.26775580644607544,
        -0.6909148097038269
      ],
      [
        "l-hand",
        0.41275137662887573,
        0.5478134751319885,
        -0.46810126304626465,
        -0.5571516156196594
      ]
    ]
  },
  {
    "time": 4041.6666666666665,
    "data": [
      [
        "l-upperarm",
        0.5482638478279114,
        0.09082157164812088,
        0.608324408531189,
        -0.5666565299034119
      ],
      [
        "l-lowerarm",
        0.6351780295372009,
        0.22130915522575378,
        -0.2620760202407837,
        -0.6920168399810791
      ],
      [
        "l-hand",
        0.41738542914390564,
        0.5438119173049927,
        -0.46300190687179565,
        -0.5618605613708496
      ]
    ]
  },
  {
    "time": 4083.333333333333,
    "data": [
      [
        "l-upperarm",
        0.5518444180488586,
        0.09504880011081696,
        0.6040489077568054,
        -0.5670611262321472
      ],
      [
        "l-lowerarm",
        0.6379402875900269,
        0.21672803163528442,
        -0.2562859058380127,
        -0.6930935382843018
      ],
      [
        "l-hand",
        0.42502862215042114,
        0.5370001792907715,
        -0.4543669819831848,
        -0.5696772933006287
      ]
    ]
  },
  {
    "time": 4125.0,
    "data": [
      [
        "l-upperarm",
        0.556697428226471,
        0.10082252323627472,
        0.5981535911560059,
        -0.5675694942474365
      ],
      [
        "l-lowerarm",
        0.6405410766601562,
        0.2123393714427948,
        -0.2507402002811432,
        -0.6940810084342957
      ],
      [
        "l-hand",
        0.43493565917015076,
        0.5278144478797913,
        -0.4428064525127411,
        -0.5797977447509766
      ]
    ]
  },
  {
    "time": 4166.666666666666,
    "data": [
      [
        "l-upperarm",
        0.561927318572998,
        0.1071033850312233,
        0.5916670560836792,
        -0.5680640339851379
      ],
      [
        "l-lowerarm",
        0.642822265625,
        0.20842725038528442,
        -0.24579745531082153,
        -0.6949253678321838
      ],
      [
        "l-hand",
        0.44635671377182007,
        0.5167129039764404,
        -0.42895403504371643,
        -0.5914153456687927
      ]
    ]
  },
  {
    "time": 4208.333333333333,
    "data": [
      [
        "l-upperarm",
        0.5666729211807251,
        0.11285703629255295,
        0.5856573581695557,
        -0.5684633255004883
      ],
      [
        "l-lowerarm",
        0.6446335315704346,
        0.20527766644954681,
        -0.24181877076625824,
        -0.6955806612968445
      ],
      [
        "l-hand",
        0.458556592464447,
        0.5042123794555664,
        -0.41350001096725464,
        -0.6037495136260986
      ]
    ]
  },
  {
    "time": 4250.0,
    "data": [
      [
        "l-upperarm",
        0.5701098442077637,
        0.11705747991800308,
        0.5812291502952576,
        -0.5687221884727478
      ],
      [
        "l-lowerarm",
        0.6458286046981812,
        0.20317792892456055,
        -0.23916655778884888,
        -0.6960054039955139
      ],
      [
        "l-hand",
        0.47083717584609985,
        0.4909093379974365,
        -0.397207647562027,
        -0.616073489189148
      ]
    ]
  },
  {
    "time": 4291.666666666666,
    "data": [
      [
        "l-upperarm",
        0.571434736251831,
        0.11868441849946976,
        0.5795047879219055,
        -0.5688150525093079
      ],
      [
        "l-lowerarm",
        0.6462606191635132,
        0.2024145871400833,
        -0.23820242285728455,
        -0.6961574554443359
      ],
      [
        "l-hand",
        0.48255762457847595,
        0.47748178243637085,
        -0.38091105222702026,
        -0.6277388334274292
      ]
    ]
  },
  {
    "time": 4333.333333333333,
    "data": [
      [
        "l-upperarm",
        0.5712912082672119,
        0.11850794404745102,
        0.5796920657157898,
        -0.5688052773475647
      ],
      [
        "l-lowerarm",
        0.6454625725746155,
        0.20382292568683624,
        -0.23998121917247772,
        -0.6958759427070618
      ],
      [
        "l-hand",
        0.49314868450164795,
        0.46467894315719604,
        -0.36550095677375793,
        -0.6381904482841492
      ]
    ]
  },
  {
    "time": 4375.0,
    "data": [
      [
        "l-upperarm",
        0.5708782076835632,
        0.11800047755241394,
        0.5802302956581116,
        -0.568776547908783
      ],
      [
        "l-lowerarm",
        0.6432766318321228,
        0.20764082670211792,
        -0.24480397999286652,
        -0.6950910091400146
      ],
      [
        "l-hand",
        0.5021154880523682,
        0.4532991945743561,
        -0.35190221667289734,
        -0.6469658613204956
      ]
    ]
  },
  {
    "time": 4416.666666666666,
    "data": [
      [
        "l-upperarm",
        0.5702219605445862,
        0.11719505488872528,
        0.5810837149620056,
        -0.5687301754951477
      ],
      [
        "l-lowerarm",
        0.6400028467178345,
        0.21325376629829407,
        -0.25189557671546936,
        -0.6938788890838623
      ],
      [
        "l-hand",
        0.5090246796607971,
        0.4441656172275543,
        -0.34105080366134644,
        -0.6536781191825867
      ]
    ]
  },
  {
    "time": 4458.333333333333,
    "data": [
      [
        "l-upperarm",
        0.5693482756614685,
        0.11612424999475479,
        0.5822160243988037,
        -0.5686671137809753
      ],
      [
        "l-lowerarm",
        0.6359445452690125,
        0.2200460582971573,
        -0.2604794502258301,
        -0.6923183798789978
      ],
      [
        "l-hand",
        0.5134766101837158,
        0.4381011724472046,
        -0.3338756561279297,
        -0.657978892326355
      ]
    ]
  },
  {
    "time": 4500.0,
    "data": [
      [
        "l-upperarm",
        0.5682829022407532,
        0.11482110619544983,
        0.5835910439491272,
        -0.5685878396034241
      ],
      [
        "l-lowerarm",
        0.6314265727996826,
        0.2274051159620285,
        -0.2697823941707611,
        -0.6905105710029602
      ],
      [
        "l-hand",
        0.5150606632232666,
        0.4359079599380493,
        -0.33128640055656433,
        -0.6595044732093811
      ]
    ]
  },
  {
    "time": 4541.666666666666,
    "data": [
      [
        "l-upperarm",
        0.5670515298843384,
        0.11331842094659805,
        0.5851726531982422,
        -0.568493127822876
      ],
      [
        "l-lowerarm",
        0.626804769039154,
        0.2347268909215927,
        -0.27904102206230164,
        -0.688589334487915
      ],
      [
        "l-hand",
        0.5128804445266724,
        0.4389147162437439,
        -0.3348369300365448,
        -0.6574130654335022
      ]
    ]
  },
  {
    "time": 4583.333333333333,
    "data": [
      [
        "l-upperarm",
        0.5656801462173462,
        0.11164907366037369,
        0.5869244933128357,
        -0.5683838129043579
      ],
      [
        "l-lowerarm",
        0.6224681735038757,
        0.24141889810562134,
        -0.2875059247016907,
        -0.6867246031761169
      ],
      [
        "l-hand",
        0.5068072080612183,
        0.44710832834243774,
        -0.34454137086868286,
        -0.6515611410140991
      ]
    ]
  },
  {
    "time": 4625.0,
    "data": [
      [
        "l-upperarm",
        0.5641946792602539,
        0.109845831990242,
        0.5888105630874634,
        -0.5682607889175415
      ],
      [
        "l-lowerarm",
        0.6188338994979858,
        0.24690212309360504,
        -0.29444363713264465,
        -0.6851181983947754
      ],
      [
        "l-hand",
        0.49747925996780396,
        0.4592004418373108,
        -0.3589439392089844,
        -0.6425018310546875
      ]
    ]
  },
  {
    "time": 4666.666666666666,
    "data": [
      [
        "l-upperarm",
        0.5626217126846313,
        0.10794190317392349,
        0.5907951593399048,
        -0.5681254267692566
      ],
      [
        "l-lowerarm",
        0.6163359880447388,
        0.2506076395511627,
        -0.2991330623626709,
        -0.6839920878410339
      ],
      [
        "l-hand",
        0.4855424463748932,
        0.47387200593948364,
        -0.37655535340309143,
        -0.6307930946350098
      ]
    ]
  },
  {
    "time": 4708.333333333333,
    "data": [
      [
        "l-upperarm",
        0.5609877109527588,
        0.10597024112939835,
        0.5928428173065186,
        -0.5679793357849121
      ],
      [
        "l-lowerarm",
        0.6154093146324158,
        0.25196966528892517,
        -0.30085691809654236,
        -0.6835699081420898
      ],
      [
        "l-hand",
        0.4717372953891754,
        0.48982003331184387,
        -0.39588212966918945,
        -0.6171043515205383
      ]
    ]
  },
  {
    "time": 4750.0,
    "data": [
      [
        "l-upperarm",
        0.5593199729919434,
        0.10396432876586914,
        0.594918429851532,
        -0.5678245425224304
      ],
      [
        "l-lowerarm",
        0.6155345439910889,
        0.25178593397140503,
        -0.30062440037727356,
        -0.6836271286010742
      ],
      [
        "l-hand",
        0.4569440484046936,
        0.5058125257492065,
        -0.41547247767448425,
        -0.6022776961326599
      ]
    ]
  },
  {
    "time": 4791.666666666666,
    "data": [
      [
        "l-upperarm",
        0.5576459765434265,
        0.10195714235305786,
        0.5969874262809753,
        -0.5676633715629578
      ],
      [
        "l-lowerarm",
        0.6159089803695679,
        0.25123605132102966,
        -0.2999284267425537,
        -0.6837978959083557
      ],
      [
        "l-hand",
        0.4421883523464203,
        0.5207412242889404,
        -0.43396857380867004,
        -0.5873409509658813
      ]
    ]
  },
  {
    "time": 4833.333333333333,
    "data": [
      [
        "l-upperarm",
        0.5559937357902527,
        0.09998218715190887,
        0.5990156531333923,
        -0.5674987435340881
      ],
      [
        "l-lowerarm",
        0.6165299415588379,
        0.250321626663208,
        -0.2987711429595947,
        -0.684080183506012
      ],
      [
        "l-hand",
        0.428610235452652,
        0.5336532592773438,
        -0.4501461684703827,
        -0.5734771490097046
      ]
    ]
  },
  {
    "time": 4875.0,
    "data": [
      [
        "l-upperarm",
        0.554391622543335,
        0.09807278960943222,
        0.6009693145751953,
        -0.5673337578773499
      ],
      [
        "l-lowerarm",
        0.6173940896987915,
        0.24904413521289825,
        -0.2971543073654175,
        -0.6844712495803833
      ],
      [
        "l-hand",
        0.4174172282218933,
        0.5437458753585815,
        -0.4629192650318146,
        -0.561968982219696
      ]
    ]
  },
  {
    "time": 4916.666666666666,
    "data": [
      [
        "l-upperarm",
        0.5528681874275208,
        0.09626267105340958,
        0.6028149724006653,
        -0.5671722888946533
      ],
      [
        "l-lowerarm",
        0.6184972524642944,
        0.24740445613861084,
        -0.2950793206691742,
        -0.6849673986434937
      ],
      [
        "l-hand",
        0.40983182191848755,
        0.5503182411193848,
        -0.4713025689125061,
        -0.5541315078735352
      ]
    ]
  },
  {
    "time": 4958.333333333333,
    "data": [
      [
        "l-upperarm",
        0.55145263671875,
        0.09458501636981964,
        0.6045198440551758,
        -0.5670180916786194
      ],
      [
        "l-lowerarm",
        0.6198346614837646,
        0.24540327489376068,
        -0.2925470769405365,
        -0.685564398765564
      ],
      [
        "l-hand",
        0.4070480465888977,
        0.5526780486106873,
        -0.47432586550712585,
        -0.5512475967407227
      ]
    ]
  },
  {
    "time": 5000.0,
    "data": [
      [
        "l-upperarm",
        0.5501740574836731,
        0.0930735394358635,
        0.6060511469841003,
        -0.5668755173683167
      ],
      [
        "l-lowerarm",
        0.6214007139205933,
        0.24304096400737762,
        -0.289558082818985,
        -0.6862568259239197
      ],
      [
        "l-hand",
        0.40706804394721985,
        0.5526551008224487,
        -0.4742967188358307,
        -0.5512808561325073
      ]
    ]
  },
  {
    "time": 5041.666666666666,
    "data": [
      [
        "l-upperarm",
        0.5490620732307434,
        0.09176178276538849,
        0.6073766350746155,
        -0.566748857498169
      ],
      [
        "l-lowerarm",
        0.623189389705658,
        0.24031752347946167,
        -0.28611260652542114,
        -0.6870387196540833
      ],
      [
        "l-hand",
        0.40723907947540283,
        0.5524976253509521,
        -0.4740949869155884,
        -0.5514857769012451
      ]
    ]
  },
  {
    "time": 5083.333333333333,
    "data": [
      [
        "l-upperarm",
        0.54814612865448,
        0.09068316221237183,
        0.6084640026092529,
        -0.5666427612304688
      ],
      [
        "l-lowerarm",
        0.6251935958862305,
        0.23723268508911133,
        -0.2822103798389435,
        -0.6879033446311951
      ],
      [
        "l-hand",
        0.407728374004364,
        0.552071213722229,
        -0.4735488295555115,
        -0.5520204901695251
      ]
    ]
  },
  {
    "time": 5125.0,
    "data": [
      [
        "l-upperarm",
        0.5474556684494019,
        0.08987127244472504,
        0.6092808842658997,
        -0.566561758518219
      ],
      [
        "l-lowerarm",
        0.6274059414863586,
        0.23378580808639526,
        -0.27785083651542664,
        -0.6888432502746582
      ],
      [
        "l-hand",
        0.4087013602256775,
        0.5512409806251526,
        -0.472485214471817,
        -0.5530411005020142
      ]
    ]
  },
  {
    "time": 5166.666666666666,
    "data": [
      [
        "l-upperarm",
        0.5470200777053833,
        0.08935967087745667,
        0.6097951531410217,
        -0.5665101408958435
      ],
      [
        "l-lowerarm",
        0.6298182010650635,
        0.22997602820396423,
        -0.273033082485199,
        -0.6898499727249146
      ],
      [
        "l-hand",
        0.4103221893310547,
        0.5498691201210022,
        -0.4707290232181549,
        -0.5547016859054565
      ]
    ]
  },
  {
    "time": 5208.333333333333,
    "data": [
      [
        "l-upperarm",
        0.5468684434890747,
        0.08918168395757675,
        0.6099739074707031,
        -0.5664921402931213
      ],
      [
        "l-lowerarm",
        0.6324214935302734,
        0.22580218315124512,
        -0.26775580644607544,
        -0.6909148097038269
      ],
      [
        "l-hand",
        0.41275137662887573,
        0.5478134751319885,
        -0.46810126304626465,
        -0.5571516156196594
      ]
    ]
  },
  {
    "time": 5250.0,
    "data": [
      [
        "l-upperarm",
        0.5482638478279114,
        0.09082157164812088,
        0.6083244681358337,
        -0.5666564702987671
      ],
      [
        "l-lowerarm",
        0.6351780295372009,
        0.22130915522575378,
        -0.2620760202407837,
        -0.6920168399810791
      ],
      [
        "l-hand",
        0.41738542914390564,
        0.5438119173049927,
        -0.46300190687179565,
        -0.5618605613708496
      ]
    ]
  },
  {
    "time": 5291.666666666666,
    "data": [
      [
        "l-upperarm",
        0.5518443584442139,
        0.09504880756139755,
        0.6040489673614502,
        -0.567061185836792
      ],
      [
        "l-lowerarm",
        0.6379402875900269,
        0.21672800183296204,
        -0.2562859356403351,
        -0.6930935382843018
      ],
      [
        "l-hand",
        0.42502862215042114,
        0.5370001792907715,
        -0.4543669521808624,
        -0.5696772933006287
      ]
    ]
  },
  {
    "time": 5333.333333333333,
    "data": [
      [
        "l-upperarm",
        0.5566973686218262,
        0.10082244873046875,
        0.5981535911560059,
        -0.5675694942474365
      ],
      [
        "l-lowerarm",
        0.6405410766601562,
        0.212339386343956,
        -0.2507402300834656,
        -0.6940810680389404
      ],
      [
        "l-hand",
        0.4349357485771179,
        0.5278144478797913,
        -0.4428064823150635,
        -0.5797977447509766
      ]
    ]
  },
  {
    "time": 5375.0,
    "data": [
      [
        "l-upperarm",
        0.5619272589683533,
        0.10710333287715912,
        0.591667115688324,
        -0.5680640935897827
      ],
      [
        "l-lowerarm",
        0.642822265625,
        0.20842725038528442,
        -0.24579750001430511,
        -0.6949253082275391
      ],
      [
        "l-hand",
        0.4463566243648529,
        0.5167129039764404,
        -0.42895403504371643,
        -0.5914153456687927
      ]
    ]
  },
  {
    "time": 5416.666666666666,
    "data": [
      [
        "l-upperarm",
        0.5666729211807251,
        0.11285701394081116,
        0.5856573581695557,
        -0.5684633255004883
      ],
      [
        "l-lowerarm",
        0.6446335315704346,
        0.2052777111530304,
        -0.24181881546974182,
        -0.6955806612968445
      ],
      [
        "l-hand",
        0.4585566818714142,
        0.5042124390602112,
        -0.4135000705718994,
        -0.6037495136260986
      ]
    ]
  },
  {
    "time": 5458.333333333333,
    "data": [
      [
        "l-upperarm",
        0.5701098442077637,
        0.11705747991800308,
        0.5812291502952576,
        -0.5687221884727478
      ],
      [
        "l-lowerarm",
        0.6458286046981812,
        0.20317792892456055,
        -0.23916655778884888,
        -0.6960054039955139
      ],
      [
        "l-hand",
        0.47083717584609985,
        0.4909093379974365,
        -0.397207647562027,
        -0.616073489189148
      ]
    ]
  },
  {
    "time": 5500.0,
    "data": [
      [
        "l-upperarm",
        0.571434736251831,
        0.11868441849946976,
        0.5795047879219055,
        -0.5688150525093079
      ],
      [
        "l-lowerarm",
        0.6462606191635132,
        0.2024145871400833,
        -0.23820242285728455,
        -0.6961574554443359
      ],
      [
        "l-hand",
        0.48255762457847595,
        0.47748178243637085,
        -0.38091105222702026,
        -0.6277388334274292
      ]
    ]
  },
  {
    "time": 5541.666666666666,
    "data": [
      [
        "l-upperarm",
        0.5710247755050659,
        0.11792019009590149,
        0.5800022482872009,
        -0.5688787698745728
      ],
      [
        "l-lowerarm",
        0.6454625725746155,
        0.20382292568683624,
        -0.2399812489748001,
        -0.6958759427070618
      ],
      [
        "l-hand",
        0.4931486248970032,
        0.46467888355255127,
        -0.3655009865760803,
        -0.6381903886795044
      ]
    ]
  },
  {
    "time": 5583.333333333333,
    "data": [
      [
        "l-upperarm",
        0.5698304772377014,
        0.11571816354990005,
        0.5814465284347534,
        -0.5690540671348572
      ],
      [
        "l-lowerarm",
        0.6432766318321228,
        0.20764082670211792,
        -0.24480397999286652,
        -0.6950910091400146
      ],
      [
        "l-hand",
        0.5021154880523682,
        0.45329922437667847,
        -0.3519022464752197,
        -0.6469658613204956
      ]
    ]
  },
  {
    "time": 5625.0,
    "data": [
      [
        "l-upperarm",
        0.567901611328125,
        0.11221245676279068,
        0.5837622284889221,
        -0.5693135261535645
      ],
      [
        "l-lowerarm",
        0.6400027871131897,
        0.21325382590293884,
        -0.25189560651779175,
        -0.6938788890838623
      ],
      [
        "l-hand",
        0.5090247392654419,
        0.4441656470298767,
        -0.34105080366134644,
        -0.6536781191825867
      ]
    ]
  },
  {
    "time": 5666.666666666666,
    "data": [
      [
        "l-upperarm",
        0.5652837753295898,
        0.10753673315048218,
        0.5868700742721558,
        -0.5696259140968323
      ],
      [
        "l-lowerarm",
        0.6359445452690125,
        0.2200460284948349,
        -0.2604794204235077,
        -0.6923184394836426
      ],
      [
        "l-hand",
        0.5134766101837158,
        0.438101202249527,
        -0.3338756859302521,
        -0.657978892326355
      ]
    ]
  },
  {
    "time": 5708.333333333333,
    "data": [
      [
        "l-upperarm",
        0.5620203018188477,
        0.10182412713766098,
        0.5906888246536255,
        -0.5699576735496521
      ],
      [
        "l-lowerarm",
        0.6314265727996826,
        0.2274051010608673,
        -0.2697823643684387,
        -0.6905105710029602
      ],
      [
        "l-hand",
        0.515060544013977,
        0.4359079599380493,
        -0.3312864303588867,
        -0.6595044732093811
      ]
    ]
  },
  {
    "time": 5750.0,
    "data": [
      [
        "l-upperarm",
        0.558154284954071,
        0.09520814567804337,
        0.595135509967804,
        -0.5702745914459229
      ],
      [
        "l-lowerarm",
        0.626804769039154,
        0.23472686111927032,
        -0.279041051864624,
        -0.688589334487915
      ],
      [
        "l-hand",
        0.5128803849220276,
        0.4389147162437439,
        -0.3348369002342224,
        -0.6574130654335022
      ]
    ]
  },
  {
    "time": 5791.666666666666,
    "data": [
      [
        "l-upperarm",
        0.5537294149398804,
        0.08782324194908142,
        0.6001270413398743,
        -0.5705422759056091
      ],
      [
        "l-lowerarm",
        0.6224681735038757,
        0.24141891300678253,
        -0.2875059247016907,
        -0.6867246031761169
      ],
      [
        "l-hand",
        0.5068072080612183,
        0.44710832834243774,
        -0.34454137086868286,
        -0.6515611410140991
      ]
    ]
  },
  {
    "time": 5833.333333333333,
    "data": [
      [
        "l-upperarm",
        0.5487915277481079,
        0.07980562746524811,
        0.6055811643600464,
        -0.570728063583374
      ],
      [
        "l-lowerarm",
        0.6188338398933411,
        0.24690212309360504,
        -0.29444369673728943,
        -0.6851181983947754
      ],
      [
        "l-hand",
        0.49747923016548157,
        0.4592004716396332,
        -0.3589438796043396,
        -0.6425018906593323
      ]
    ]
  },
  {
    "time": 5875.0,
    "data": [
      [
        "l-upperarm",
        0.5433893203735352,
        0.07129273563623428,
        0.6114172339439392,
        -0.5708014965057373
      ],
      [
        "l-lowerarm",
        0.6163360476493835,
        0.25060755014419556,
        -0.2991330027580261,
        -0.6839921474456787
      ],
      [
        "l-hand",
        0.4855424761772156,
        0.47387200593948364,
        -0.37655535340309143,
        -0.6307931542396545
      ]
    ]
  },
  {
    "time": 5916.666666666666,
    "data": [
      [
        "l-upperarm",
        0.5375756025314331,
        0.06242381036281586,
        0.6175573468208313,
        -0.5707352757453918
      ],
      [
        "l-lowerarm",
        0.6154093146324158,
        0.2519696354866028,
        -0.30085691809654236,
        -0.6835699081420898
      ],
      [
        "l-hand",
        0.47173723578453064,
        0.4898199439048767,
        -0.39588209986686707,
        -0.6171044111251831
      ]
    ]
  },
  {
    "time": 5958.333333333333,
    "data": [
      [
        "l-upperarm",
        0.5314071774482727,
        0.053339045494794846,
        0.6239266991615295,
        -0.5705058574676514
      ],
      [
        "l-lowerarm",
        0.6167504191398621,
        0.2501797080039978,
        -0.2984624207019806,
        -0.6840681433677673
      ],
      [
        "l-hand",
        0.4569441080093384,
        0.5058124661445618,
        -0.4154723882675171,
        -0.6022777557373047
      ]
    ]
  },
  {
    "time": 6000.0,
    "data": [
      [
        "l-upperarm",
        0.5249451398849487,
        0.04417986050248146,
        0.6304548382759094,
        -0.5700942873954773
      ],
      [
        "l-lowerarm",
        0.6205102801322937,
        0.2450769543647766,
        -0.2916542887687683,
        -0.6854502558708191
      ],
      [
        "l-hand",
        0.44218823313713074,
        0.52074134349823,
        -0.4339686334133148,
        -0.5873409509658813
      ]
    ]
  },
  {
    "time": 6041.666666666666,
    "data": [
      [
        "l-upperarm",
        0.518255352973938,
        0.03508799895644188,
        0.637076199054718,
        -0.5694859027862549
      ],
      [
        "l-lowerarm",
        0.626259446144104,
        0.2370411902666092,
        -0.28097036480903625,
        -0.6875072717666626
      ],
      [
        "l-hand",
        0.428610235452652,
        0.5336532592773438,
        -0.4501461386680603,
        -0.5734770894050598
      ]
    ]
  },
  {
    "time": 6083.333333333333,
    "data": [
      [
        "l-upperarm",
        0.5114074945449829,
        0.026205379515886307,
        0.6437304019927979,
        -0.5686711072921753
      ],
      [
        "l-lowerarm",
        0.6335390210151672,
        0.22644196450710297,
        -0.26693639159202576,
        -0.6899980306625366
      ],
      [
        "l-hand",
        0.41741713881492615,
        0.5437459349632263,
        -0.46291935443878174,
        -0.5619689226150513
      ]
    ]
  },
  {
    "time": 6125.0,
    "data": [
      [
        "l-upperarm",
        0.5044752955436707,
        0.017672844231128693,
        0.6503627896308899,
        -0.5676447749137878
      ],
      [
        "l-lowerarm",
        0.641878604888916,
        0.21365681290626526,
        -0.25008946657180786,
        -0.692674458026886
      ],
      [
        "l-hand",
        0.4098317325115204,
        0.5503182411193848,
        -0.4713025391101837,
        -0.5541314482688904
      ]
    ]
  },
  {
    "time": 6166.666666666666,
    "data": [
      [
        "l-upperarm",
        0.4975356161594391,
        0.009630821645259857,
        0.6569241285324097,
        -0.5664064884185791
      ],
      [
        "l-lowerarm",
        0.6508142352104187,
        0.19908550381660461,
        -0.23099495470523834,
        -0.6953036189079285
      ],
      [
        "l-hand",
        0.4070480465888977,
        0.5526780486106873,
        -0.47432586550712585,
        -0.5512475967407227
      ]
    ]
  },
  {
    "time": 6208.333333333333,
    "data": [
      [
        "l-upperarm",
        0.4906679093837738,
        0.0022180103696882725,
        0.6633709669113159,
        -0.5649594664573669
      ],
      [
        "l-lowerarm",
        0.6599071621894836,
        0.18315693736076355,
        -0.210254967212677,
        -0.6976883411407471
      ],
      [
        "l-hand",
        0.4078381359577179,
        0.5521441698074341,
        -0.4733641743659973,
        -0.5520247220993042
      ]
    ]
  },
  {
    "time": 6250.0,
    "data": [
      [
        "l-upperarm",
        0.4839535057544708,
        -0.004427948035299778,
        0.6696648001670837,
        -0.5633103847503662
      ],
      [
        "l-lowerarm",
        0.668761670589447,
        0.16632971167564392,
        -0.1885080188512802,
        -0.6996834874153137
      ],
      [
        "l-hand",
        0.41016292572021484,
        0.5505012273788452,
        -0.4705686867237091,
        -0.5543282628059387
      ]
    ]
  },
  {
    "time": 6291.666666666666,
    "data": [
      [
        "l-upperarm",
        0.47747501730918884,
        -0.010171300731599331,
        0.6757717132568359,
        -0.5614684224128723
      ],
      [
        "l-lowerarm",
        0.6770400404930115,
        0.1490878164768219,
        -0.1664222627878189,
        -0.7012084126472473
      ],
      [
        "l-hand",
        0.4139454960823059,
        0.5476775765419006,
        -0.46606630086898804,
        -0.5581045150756836
      ]
    ]
  },
  {
    "time": 6333.333333333333,
    "data": [
      [
        "l-upperarm",
        0.47131529450416565,
        -0.014877155423164368,
        0.6816613674163818,
        -0.5594447255134583
      ],
      [
        "l-lowerarm",
        0.6844731569290161,
        0.13192984461784363,
        -0.1446816772222519,
        -0.7022522687911987
      ],
      [
        "l-hand",
        0.41910067200660706,
        0.5435880422592163,
        -0.45997029542922974,
        -0.5632885098457336
      ]
    ]
  },
  {
    "time": 6375.0,
    "data": [
      [
        "l-upperarm",
        0.4655572175979614,
        -0.018411219120025635,
        0.6873058676719666,
        -0.5572505593299866
      ],
      [
        "l-lowerarm",
        0.690863847732544,
        0.1153581291437149,
        -0.12397166341543198,
        -0.7028732299804688
      ],
      [
        "l-hand",
        0.42553994059562683,
        0.5381332039833069,
        -0.45237886905670166,
        -0.5698084831237793
      ]
    ]
  },
  {
    "time": 6416.666666666666,
    "data": [
      [
        "l-upperarm",
        0.4602826237678528,
        -0.020639032125473022,
        0.6926784515380859,
        -0.5548969507217407
      ],
      [
        "l-lowerarm",
        0.6960828900337219,
        0.09986771643161774,
        -0.10496573150157928,
        -0.703190803527832
      ],
      [
        "l-hand",
        0.4331757426261902,
        0.5311959385871887,
        -0.44337141513824463,
        -0.5775911808013916
      ]
    ]
  },
  {
    "time": 6458.333333333333,
    "data": [
      [
        "l-upperarm",
        0.4555719196796417,
        -0.021425239741802216,
        0.6977514624595642,
        -0.5523930191993713
      ],
      [
        "l-lowerarm",
        0.7000575065612793,
        0.08593913912773132,
        -0.08831734955310822,
        -0.7033733129501343
      ],
      [
        "l-hand",
        0.44192230701446533,
        0.5226403474807739,
        -0.4330075979232788,
        -0.5865629315376282
      ]
    ]
  },
  {
    "time": 6500.0,
    "data": [
      [
        "l-upperarm",
        0.4515033960342407,
        -0.020632656291127205,
        0.7024952173233032,
        -0.5497450232505798
      ],
      [
        "l-lowerarm",
        0.702752947807312,
        0.07403575628995895,
        -0.07465869188308716,
        -0.7036214470863342
      ],
      [
        "l-hand",
        0.45169851183891296,
        0.5123074054718018,
        -0.42132553458213806,
        -0.5966526865959167
      ]
    ]
  },
  {
    "time": 6541.666666666666,
    "data": [
      [
        "l-upperarm",
        0.44815289974212646,
        -0.01812024600803852,
        0.7068746089935303,
        -0.5469542741775513
      ],
      [
        "l-lowerarm",
        0.704149067401886,
        0.06460760533809662,
        -0.06460760533809662,
        -0.704149067401886
      ],
      [
        "l-hand",
        0.4624268412590027,
        0.5000103712081909,
        -0.4083394706249237,
        -0.607791006565094
      ]
    ]
  },
  {
    "time": 6583.333333333333,
    "data": [
      [
        "l-upperarm",
        0.44603317975997925,
        -0.0123595604673028,
        0.7102219462394714,
        -0.544505774974823
      ],
      [
        "l-lowerarm",
        0.7048146724700928,
        0.056888602674007416,
        -0.05688859149813652,
        -0.7048146724700928
      ],
      [
        "l-hand",
        0.47438839077949524,
        0.4856070876121521,
        -0.3940528929233551,
        -0.6195674538612366
      ]
    ]
  },
  {
    "time": 6625.0,
    "data": [
      [
        "l-upperarm",
        0.445499986410141,
        -0.0021561027970165014,
        0.711950957775116,
        -0.5428175926208496
      ],
      [
        "l-lowerarm",
        0.7053508758544922,
        0.04980117827653885,
        -0.04980117827653885,
        -0.7053508758544922
      ],
      [
        "l-hand",
        0.4877602756023407,
        0.46910929679870605,
        -0.37846288084983826,
        -0.6314999461174011
      ]
    ]
  },
  {
    "time": 6666.666666666666,
    "data": [
      [
        "l-upperarm",
        0.44637784361839294,
        0.012148387730121613,
        0.7121012806892395,
        -0.5417665839195251
      ],
      [
        "l-lowerarm",
        0.7057784199714661,
        0.043322138488292694,
        -0.0433221310377121,
        -0.7057784795761108
      ],
      [
        "l-hand",
        0.5023031234741211,
        0.45054927468299866,
        -0.3615686893463135,
        -0.6434011459350586
      ]
    ]
  },
  {
    "time": 6708.333333333333,
    "data": [
      [
        "l-upperarm",
        0.4484761655330658,
        0.030219299718737602,
        0.7106692790985107,
        -0.5412071347236633
      ],
      [
        "l-lowerarm",
        0.7061156034469604,
        0.03742685541510582,
        -0.03742684796452522,
        -0.7061156034469604
      ],
      [
        "l-hand",
        0.5177621245384216,
        0.42998409271240234,
        -0.34339356422424316,
        -0.6550701856613159
      ]
    ]
  },
  {
    "time": 6750.0,
    "data": [
      [
        "l-upperarm",
        0.4515920877456665,
        0.0517132468521595,
        0.7076243758201599,
        -0.5409787893295288
      ],
      [
        "l-lowerarm",
        0.7063782811164856,
        0.03208966553211212,
        -0.03208967298269272,
        -0.7063782811164856
      ],
      [
        "l-hand",
        0.5338681936264038,
        0.40750589966773987,
        -0.3239917457103729,
        -0.6662980914115906
      ]
    ]
  },
  {
    "time": 6791.666666666666,
    "data": [
      [
        "l-upperarm",
        0.4555125832557678,
        0.07626272737979889,
        0.702925980091095,
        -0.540913462638855
      ],
      [
        "l-lowerarm",
        0.7065802216529846,
        0.027284184470772743,
        -0.027284184470772743,
        -0.7065802216529846
      ],
      [
        "l-hand",
        0.5503401756286621,
        0.3832506239414215,
        -0.3034537136554718,
        -0.6768755912780762
      ]
    ]
  },
  {
    "time": 6833.333333333333,
    "data": [
      [
        "l-upperarm",
        0.4600183069705963,
        0.1034647524356842,
        0.6965401768684387,
        -0.5408418774604797
      ],
      [
        "l-lowerarm",
        0.7067331671714783,
        0.02298334240913391,
        -0.02298334240913391,
        -0.7067331671714783
      ],
      [
        "l-hand",
        0.5668906569480896,
        0.35740500688552856,
        -0.28191131353378296,
        -0.6866022944450378
      ]
    ]
  },
  {
    "time": 6875.0,
    "data": [
      [
        "l-upperarm",
        0.46488866209983826,
        0.13287226855754852,
        0.6884561777114868,
        -0.54060298204422
      ],
      [
        "l-lowerarm",
        0.7068471908569336,
        0.01915971003472805,
        -0.01915971003472805,
        -0.7068471908569336
      ],
      [
        "l-hand",
        0.5832342505455017,
        0.330209344625473,
        -0.2595386505126953,
        -0.6952980160713196
      ]
    ]
  },
  {
    "time": 6916.666666666666,
    "data": [
      [
        "l-upperarm",
        0.4699084758758545,
        0.16399461030960083,
        0.6787013411521912,
        -0.5400521159172058
      ],
      [
        "l-lowerarm",
        0.7069305777549744,
        0.01578553207218647,
        -0.01578553207218647,
        -0.7069305777549744
      ],
      [
        "l-hand",
        0.5990985035896301,
        0.3019564151763916,
        -0.23655058443546295,
        -0.7028137445449829
      ]
    ]
  },
  {
    "time": 6958.333333333333,
    "data": [
      [
        "l-upperarm",
        0.4748762547969818,
        0.19630008935928345,
        0.6673540472984314,
        -0.5390709042549133
      ],
      [
        "l-lowerarm",
        0.7069903612136841,
        0.012832852080464363,
        -0.012832852080464363,
        -0.7069903612136841
      ],
      [
        "l-hand",
        0.6142347455024719,
        0.272986501455307,
        -0.2131982147693634,
        -0.7090420722961426
      ]
    ]
  },
  {
    "time": 7000.0,
    "data": [
      [
        "l-upperarm",
        0.4796122908592224,
        0.22922851145267487,
        0.6545529961585999,
        -0.5375749468803406
      ],
      [
        "l-lowerarm",
        0.7070322036743164,
        0.010273602791130543,
        -0.010273604653775692,
        -0.7070321440696716
      ],
      [
        "l-hand",
        0.6284288167953491,
        0.24367746710777283,
        -0.18976092338562012,
        -0.713925302028656
      ]
    ]
  },
  {
    "time": 7041.666666666666,
    "data": [
      [
        "l-upperarm",
        0.48396751284599304,
        0.2622066140174866,
        0.6405001878738403,
        -0.5355209112167358
      ],
      [
        "l-lowerarm",
        0.7070606350898743,
        0.008079647086560726,
        -0.008079647086560726,
        -0.7070606350898743
      ],
      [
        "l-hand",
        0.6415104866027832,
        0.21443210542201996,
        -0.16653607785701752,
        -0.717460036277771
      ]
    ]
  },
  {
    "time": 7083.333333333333,
    "data": [
      [
        "l-upperarm",
        0.48782965540885925,
        0.29466766119003296,
        0.6254602670669556,
        -0.532909631729126
      ],
      [
        "l-lowerarm",
        0.7070794105529785,
        0.006222800351679325,
        -0.006222800351679325,
        -0.7070794105529785
      ],
      [
        "l-hand",
        0.653358519077301,
        0.18566371500492096,
        -0.1438281536102295,
        -0.7196979522705078
      ]
    ]
  },
  {
    "time": 7125.0,
    "data": [
      [
        "l-upperarm",
        0.4911269545555115,
        0.32607176899909973,
        0.6097521781921387,
        -0.5297866463661194
      ],
      [
        "l-lowerarm",
        0.7070913314819336,
        0.004674894735217094,
        -0.004674894735217094,
        -0.7070913314819336
      ],
      [
        "l-hand",
        0.6639029383659363,
        0.15778179466724396,
        -0.12193737179040909,
        -0.7207420468330383
      ]
    ]
  },
  {
    "time": 7166.666666666666,
    "data": [
      [
        "l-upperarm",
        0.49382922053337097,
        0.355923056602478,
        0.5937379002571106,
        -0.5262383222579956
      ],
      [
        "l-lowerarm",
        0.7070986032485962,
        0.0034077491145581007,
        -0.0034077498130500317,
        -0.7070985436439514
      ],
      [
        "l-hand",
        0.6731230616569519,
        0.13117851316928864,
        -0.10114980489015579,
        -0.7207400798797607
      ]
    ]
  },
  {
    "time": 7208.333333333333,
    "data": [
      [
        "l-upperarm",
        0.49594494700431824,
        0.38378214836120605,
        0.5778080821037292,
        -0.5223865509033203
      ],
      [
        "l-lowerarm",
        0.7071027159690857,
        0.0023932377807796,
        -0.0023932382464408875,
        -0.7071027159690857
      ],
      [
        "l-hand",
        0.6810416579246521,
        0.10621999204158783,
        -0.08173074573278427,
        -0.7198747396469116
      ]
    ]
  },
  {
    "time": 7250.0,
    "data": [
      [
        "l-upperarm",
        0.497516006231308,
        0.4092728793621063,
        0.5623667240142822,
        -0.5183794498443604
      ],
      [
        "l-lowerarm",
        0.7071049809455872,
        0.0016032068524509668,
        -0.0016032068524509668,
        -0.7071049809455872
      ],
      [
        "l-hand",
        0.6877169609069824,
        0.08323995769023895,
        -0.06392011046409607,
        -0.7183527946472168
      ]
    ]
  },
  {
    "time": 7291.666666666666,
    "data": [
      [
        "l-upperarm",
        0.4986100494861603,
        0.4320814609527588,
        0.5478178262710571,
        -0.5143824219703674
      ],
      [
        "l-lowerarm",
        0.7071060538291931,
        0.0010095610050484538,
        -0.0010095610050484538,
        -0.7071060538291931
      ],
      [
        "l-hand",
        0.6932322382926941,
        0.06253861635923386,
        -0.047932110726833344,
        -0.7163941264152527
      ]
    ]
  },
  {
    "time": 7333.333333333333,
    "data": [
      [
        "l-upperarm",
        0.4993118345737457,
        0.45194870233535767,
        0.5345549583435059,
        -0.5105693936347961
      ],
      [
        "l-lowerarm",
        0.7071065902709961,
        0.0005842194077558815,
        -0.0005842194077558815,
        -0.7071065902709961
      ],
      [
        "l-hand",
        0.6976854205131531,
        0.04438500851392746,
        -0.03395702689886093,
        -0.7142212390899658
      ]
    ]
  },
  {
    "time": 7375.0,
    "data": [
      [
        "l-upperarm",
        0.4997144341468811,
        0.46865734457969666,
        0.522954523563385,
        -0.5071139335632324
      ],
      [
        "l-lowerarm",
        0.7071067094802856,
        0.00029911668389104307,
        -0.00029911668389104307,
        -0.7071067094802856
      ],
      [
        "l-hand",
        0.7011775970458984,
        0.029023190960288048,
        -0.022166283801198006,
        -0.7120507955551147
      ]
    ]
  },
  {
    "time": 7416.666666666666,
    "data": [
      [
        "l-upperarm",
        0.49991002678871155,
        0.48201489448547363,
        0.5133719444274902,
        -0.5041833519935608
      ],
      [
        "l-lowerarm",
        0.7071067690849304,
        0.00012618604523595423,
        -0.00012618604523595423,
        -0.7071067690849304
      ],
      [
        "l-hand",
        0.7038031816482544,
        0.016680337488651276,
        -0.012718714773654938,
        -0.7100852727890015
      ]
    ]
  },
  {
    "time": 7458.333333333333,
    "data": [
      [
        "l-upperarm",
        0.49998247623443604,
        0.4918341040611267,
        0.5061428546905518,
        -0.5019325017929077
      ],
      [
        "l-lowerarm",
        0.7071068286895752,
        3.73790790035855e-05,
        -3.737907172762789e-05,
        -0.7071068286895752
      ],
      [
        "l-hand",
        0.7056393623352051,
        0.007576757110655308,
        -0.005768277682363987,
        -0.7085071802139282
      ]
    ]
  },
  {
    "time": 7500.0,
    "data": [
      [
        "l-upperarm",
        0.4999985694885254,
        0.4979105293750763,
        0.501584529876709,
        -0.5004992485046387
      ],
      [
        "l-lowerarm",
        0.7071068286895752,
        4.6624968490505125e-06,
        -4.662495939555811e-06,
        -0.7071068286895752
      ],
      [
        "l-hand",
        0.7067363262176514,
        0.0019369479268789291,
        -0.001472437521442771,
        -0.7074728608131409
      ]
    ]
  },
  {
    "time": 7541.666666666666,
    "data": [
      [
        "l-upperarm",
        0.5000000596046448,
        0.5,
        0.5,
        -0.5000000596046448
      ],
      [
        "l-lowerarm",
        0.7071068286895752,
        0.0,
        0.0,
        -0.7071068286895752
      ],
      [
        "l-hand",
        0.7071068286895752,
        0.0,
        0.0,
        -0.7071068286895752
      ]
    ]
  }
]